Lab5.1/Lab5-1.vcd
$comment
Copyright (C) 1991-2010 Altera Corporation
Your use of Altera Corporation's design tools, logic functions 
and other software and tools, and its AMPP partner logic 
functions, and any output files from any of the foregoing 
(including device programming or simulation files), and any 
associated documentation or information are expressly subject 
to the terms and conditions of the Altera Program License 
Subscription Agreement, Altera MegaCore Function License 
Agreement, or other applicable license agreement, including, 
without limitation, that your use is for the sole purpose of 
programming logic devices manufactured by Altera and sold by 
Altera or its authorized distributors.  Please refer to the 
applicable agreement for further details.
$end

$date 
  04/06/2014 02:00:46 
$end
$version 
 QUARTUS_VCD_EXPORT 1.0 
$end
$timescale
  1 ps
$end
$scope module g31_time_zone_converter $end
$var reg 1 ! clock $end
$var reg 1 " dst[0:0] $end
$var reg 5 # earth_time_zone[4:0] $end
$var reg 5 $ mars_time_zone[4:0] $end
$var reg 5 % earth_local_hours[4:0] $end
$var reg 5 & earth_local_days[4:0] $end
$var reg 5 ' mars_MTC_hours[4:0] $end
$var reg 5 ( earth_utc_hours[4:0] $end
$var reg 5 ) earth_utc_days[4:0] $end
$var reg 5 * earth_utc_hours_out[4:0] $end
$var reg 5 + earth_utc_days_out[4:0] $end
$var reg 5 , earth_tz_days_out[4:0] $end
$var reg 5 - earth_tz_hours_out[4:0] $end
$var reg 5 . mars_tz_hours_out[4:0] $end
$upscope $end
$enddefinitions $end
#0
$dumpvars
0!
b0 "
b100 #
b100 $
b0 %
b1 &
b10100 '
b0 (
b0 )
b0 *
b0 +
b0 ,
b0 -
b0 .
$end
#5000
b0 '
#10000
1!
b10011 *
b11111 ,
b10000 -
b10000 .
#20000
0!
#25000
b1 %
b1 '
#30000
1!
b10100 *
b10001 .
#40000
0!
#45000
b10 %
b10 '
#50000
1!
b10101 *
b10010 .
#60000
0!
#65000
b11 %
b11 '
#70000
1!
b10110 *
b10011 .
#80000
0!
#85000
b100 %
b100 '
#90000
1!
b10111 *
b11100 .
#100000
0!
#105000
b101 %
b101 '
#110000
1!
b0 *
b1 +
b11101 .
#120000
0!
#125000
b110 %
b110 '
#130000
1!
b1 *
b11110 .
#140000
0!
#145000
b111 %
b111 '
#150000
1!
b10 *
b11111 .
#160000
0!
#165000
b1000 %
b1000 '
#170000
1!
b11 *
b0 .
#180000
0!
#185000
b1001 %
b1001 '
#190000
1!
b100 *
b1 .
#200000
0!
#205000
b1010 %
b1010 '
#210000
1!
b101 *
b10 .
#220000
0!
#225000
b1011 %
b1011 '
#230000
1!
b110 *
b11 .
#240000
0!
#245000
b1100 %
b1100 '
#250000
1!
b111 *
b100 .
#260000
0!
#265000
b1101 %
b1101 '
#270000
1!
b1000 *
b101 .
#280000
0!
#285000
b1110 %
b1110 '
#290000
1!
b1001 *
b110 .
#300000
0!
#305000
b1111 %
b1111 '
#310000
1!
b1010 *
b111 .
#320000
0!
#325000
b10000 %
b10000 '
#330000
1!
b1011 *
b1000 .
#340000
0!
#345000
b10001 %
b10001 '
#350000
1!
b1100 *
b1001 .
#360000
0!
#365000
b10010 %
b10010 '
#370000
1!
b1101 *
b1010 .
#380000
0!
#385000
b10011 %
b10011 '
#390000
1!
b1110 *
b1011 .
#400000
0!
#405000
b10100 %
b10100 '
#410000
1!
b1111 *
b1100 .
#420000
0!
#425000
b10101 %
b10101 '
#430000
1!
b10000 *
b1101 .
#440000
0!
#445000
b10110 %
b10110 '
#450000
1!
b10001 *
b1110 .
#460000
0!
#465000
b10111 %
b10111 '
#470000
1!
b10010 *
b1111 .
#480000
0!
#485000
b11000 %
b11000 '
#490000
1!
b10011 *
b10000 .
#500000
0!
#505000
b11001 %
b11001 '
#510000
1!
b10100 *
b10001 .
#520000
0!
#525000
b11010 %
b11010 '
#530000
1!
b10101 *
b10010 .
#540000
0!
#545000
b11011 %
b11011 '
#550000
1!
b10110 *
b10011 .
#560000
0!
#565000
b11100 %
b11100 '
#570000
1!
b10111 *
b10100 .
#580000
0!
#585000
b11101 %
b11101 '
#590000
1!
b11000 *
b10101 .
#600000
0!
#605000
b11110 %
b11110 '
#610000
1!
b11001 *
b10110 .
#620000
0!
#625000
b11111 %
b11111 '
#630000
1!
b11010 *
b10111 .
#640000
0!
#645000
b0 %
b0 '
#650000
1!
b10011 *
b0 +
b10000 .
#660000
0!
#665000
b1 %
b1 '
#670000
1!
b10100 *
b10001 .
#680000
0!
#685000
b10 %
b10 '
#690000
1!
b10101 *
b10010 .
#700000
0!
#705000
b11 %
b11 '
#710000
1!
b10110 *
b10011 .
#720000
0!
#725000
b100 %
b100 '
#730000
1!
b10111 *
b11100 .
#740000
0!
#745000
b101 %
b101 '
#750000
1!
b0 *
b1 +
b11101 .
#760000
0!
#765000
b110 %
b110 '
#770000
1!
b1 *
b11110 .
#780000
0!
#785000
b111 %
b111 '
#790000
1!
b10 *
b11111 .
#800000
0!
#805000
b1000 %
b1000 '
#810000
1!
b11 *
b0 .
#820000
0!
#825000
b1001 %
b1001 '
#830000
1!
b100 *
b1 .
#840000
0!
#845000
b1010 %
b1010 '
#850000
1!
b101 *
b10 .
#860000
0!
#865000
b1011 %
b1011 '
#870000
1!
b110 *
b11 .
#880000
0!
#885000
b1100 %
b1100 '
#890000
1!
b111 *
b100 .
#900000
0!
#905000
b1101 %
b1101 '
#910000
1!
b1000 *
b101 .
#920000
0!
#925000
b1110 %
b1110 '
#930000
1!
b1001 *
b110 .
#940000
0!
#945000
b1111 %
b1111 '
#950000
1!
b1010 *
b111 .
#960000
0!
#965000
b10000 %
b10000 '
#970000
1!
b1011 *
b1000 .
#980000
0!
#985000
b10001 %
b10001 '
#990000
1!
b1100 *
b1001 .
